{
  "model": "StudyProgramSemesterRules",
  "settings": {
    "i18n": {
      "el": {
        "Semester rules": "Κανόνες εξαμήνων",
        "Rule type": "Τύπος κανόνα",
        "Semester rule": "Κανόνας εξαμήνου",
        "Registration rule": "Κανόνας δήλωσης",
        "Set maximum allowed courses to be registered for specific semester": "Ορίστε τον τύπο του μαθήματος σύμφωνα με τους κανόνες και τις προϋποθέσεις του προγράμματος σπουδών.",
        "Number of courses": "Αριθμός μαθημάτων",
        "Number of ects": "Αριθμός ects",
        "Number of units": "Αριθμός διδακτικών μονάδων",
        "Number of hours": "Αριθμός ωρών",
        "All types": "Όλοι οι τύποι"
      }
    }
  },
  "components": [
    {
      "legend": "Semester rules",
      "key": "fieldSet",
      "type": "fieldset",
      "input": false,
      "label": "Semester rules",
      "components": [
        {
          "label": "HTML",
          "tag": "h5",
          "className": "font-weight-normal",
          "content": "{{form.subtitle}}",
          "refreshOnChange": false,
          "tableView": false,
          "key": "subtitle",
          "type": "htmlelement",
          "input": false
        },
        {
          "columns": [
            {
              "components": [
                {
                  "label": "Rule type",
                  "labelPosition": "top",
                  "widget": "choicesjs",
                  "searchEnabled": false,
                  "data": {
                    "values": [
                      {
                        "label": "Semester rule",
                        "value": "SemesterRule"
                      },
                      {
                        "label": "Registration rule",
                        "value": "RegistrationRule"
                      }
                    ]
                  },
                  "dataType": "string",
                  "validate": {
                    "required": false
                  },
                  "disabled": true,
                  "selectThreshold": 0.3,
                  "key": "additionalType",
                  "selectValues": "value",
                  "type": "select",
                  "input": true,
                  "defaultValue": "SemesterRule"
                }
              ],
              "width": 4
            },
            {
              "components": [
                {
                  "label": "Semester",
                  "labelPosition": "top",
                  "widget": "choicesjs",
                  "dataSrc": "url",
                  "data": {
                    "url": "Semesters?$orderby=id",
                    "headers": []
                  },
                  "template": "<span class='col-4 text-truncate'>{{ item.name }}</span>",
                  "selectValues": "value",
                  "key": "semester",
                  "searchEnabled": false,
                  "type": "select",
                  "input": true,
                  "lazyLoad": false,
                  "validate": {
                    "required": false
                  },
                  "disabled": true
                }
              ],
              "width": 4
            },
            {
              "components": [
                {
                  "label": "Course types",
                  "labelPosition": "top",
                  "key": "allCourseTypes",
                  "input": true,
                  "customDefaultValue": "value=instance.t('All types')",
                  "disabled": true,
                  "customConditional": "show = !!(data.courseTypes && data.courseTypes.length==0)",
                  "type": "textfield"
                }
              ],
              "width": 6
            },
            {
              "components": [
                {
                  "label": "Course types",
                  "disableAddingRemovingRows": true,
                  "reorder": false,
                  "defaultOpen": false,
                  "layoutFixed": false,
                  "enableRowGroups": false,
                  "initEmpty": false,
                  "customConditional": "show = !!(data.courseTypes && data.courseTypes.length!=0)",
                  "disabled": true,
                  "customClass": "border-0",
                  "tableView": false,
                  "key": "courseTypes",
                  "type": "datagrid",
                  "initEmpty": true,

                  "input": true,
                  "components": [
                    {
                      "hideLabel": true,
                      "labelPosition": "top",
                      "widget": {
                        "type": "input"
                      },
                      "key": "name",
                      "type": "textfield",
                      "input": true,
                      "disabled": true
                    }
                  ]
                }

              ],
              "width": 8,
              "offset": 0,
              "push": 0,
              "pull": 0,
              "size": "md"
            }

          ],
          "customClass": "text-dark",
          "hideLabel": true,
          "type": "columns",
          "input": false
        },
        {
          "columns": [
            {
              "components": [
                {
                  "label": "Number of courses",
                  "labelPosition": "top",
                  "widget": {
                    "type": "input"
                  },
                  "validate": {
                    "required": true,
                    "integer": true,
                    "min": 0
                  },
                  "key": "courses",
                  "type": "number",
                  "input": true,
                  "protected": true,
                  "defaultValue": 0
                }
              ],
              "width": 3
            },
            {
              "components": [
                {
                  "label": "Number of ects",
                  "labelPosition": "top",
                  "widget": {
                    "type": "input",
                    "min": 0
                  },
                  "validate": {
                    "required": true,
                    "integer": true
                  },
                  "key": "ects",
                  "type": "number",
                  "input": true,
                  "protected": true,
                  "defaultValue": 0
                }
              ],
              "width": 3
            },
            {
              "components": [
                {
                  "label": "Number of units",
                  "labelPosition": "top",
                  "widget": {
                    "type": "input"
                  },
                  "validate": {
                    "required": true,
                    "integer": true,
                    "min": 0
                  },
                  "key": "units",
                  "type": "number",
                  "input": true,
                  "protected": true,
                  "defaultValue": 0
                }
              ],
              "width": 3
            },
            {
              "components": [
                {
                  "label": "Number of hours",
                  "labelPosition": "top",
                  "widget": {
                    "type": "input"
                  },
                  "validate": {
                    "required": true,
                    "integer": true,
                    "min": 0
                  },
                  "key": "hours",
                  "type": "number",
                  "input": true,
                  "protected": true,
                  "defaultValue": 0
                }
              ],
              "width": 3
            }
          ],
          "customClass": "text-dark",
          "hideLabel": true,
          "type": "columns",
          "input": false
        }
      ]
    },
    {
      "type": "button",
      "label": "Submit",
      "key": "submit",
      "disableOnInvalid": true,
      "input": true
    }
  ]
}
