{
  "components": [
    {
      "label": "Columns",
      "columns": [
        {
          "components": [
            {
              "label": "Candidates.EventTitle",
              "spellcheck": true,
              "tableView": true,
              "validate": {
                "unique": false,
                "multiple": false
              },
              "key": "title",
              "type": "textfield",
              "input": true,
              "hideOnChildrenHidden": false
            }
          ],
          "width": 8,
          "offset": 0,
          "push": 0,
          "pull": 0
        }
      ],
      "tableView": false,
      "key": "department",
      "type": "columns",
      "input": false,
      "path": "columns"
    },
    {
      "label": "Columns",
      "columns": [
        {
          "components": [
            {
              "label": "Candidates.Year",
              "widget": "choicesjs",
              "dataSrc": "url",
              "data": {
                "url": "AcademicYears?$orderby=id desc",
                "headers": []
              },
              "selectThreshold": 0.3,
              "template": "<span class='d-block pr-5 text-truncate'>{{ item.name }}</span>",
              "key": "yearId",
              "valueProperty": "id",
              "selectValues": "value",
              "type": "select",
              "input": true,
              "hideOnChildrenHidden": false,
              "disableLimit": false,
              "lazyLoad": false
            }
          ],
          "width": 4,
          "offset": 0,
          "push": 0,
          "pull": 0
        },
        {
          "components": [
            {
              "label": "Candidates.Period",
              "widget": "choicesjs",
              "dataSrc": "url",
              "data": {
                "url": "AcademicPeriods?$orderby=id",
                "headers": []
              },
              "selectThreshold": 0.3,
              "template": "<span class='d-block pr-5 text-truncate'>{{ item.name }}</span>",
              "key": "period",
              "valueProperty": "alternateName",
              "selectValues": "value",
              "type": "select",
              "input": true,
              "hideOnChildrenHidden": false,
              "disableLimit": false,
              "lazyLoad": false
            }
          ],
          "width": 4,
          "offset": 0,
          "push": 0,
          "pull": 0
        },
        {
          "components": [
            {
              "label": "Candidates.Status",
              "widget": "choicesjs",
              "dataSrc": "url",
              "data": {
                "url": "EventStatusTypes?$orderby=id",
                "headers": []
              },
              "selectThreshold": 0.3,
              "template": "<span class='d-block pr-5 text-truncate'>{{ item.name }}</span>",
              "key": "eventStatus",
              "valueProperty": "id",
              "selectValues": "value",
              "type": "select",
              "input": true,
              "hideOnChildrenHidden": false,
              "disableLimit": false,
              "lazyLoad": false
            }
          ],
          "width": 4,
          "offset": 0,
          "push": 0,
          "pull": 0
        }
      ],
      "tableView": false,
      "key": "columns1",
      "type": "columns",
      "input": false,
      "path": "columns1"
    }
  ]
}
