{
  "title": "Departments",
  "model": "LocalDepartments",
  "searchExpression":"indexof(name, '${text}') ge 0 or indexof(facultyName, '${text}') ge 0 or indexof(abbreviation, '${text}') ge 0 or indexof(phone2, '${text}') ge 0 or indexof(phone1, '${text}') ge 0 or indexof(email, '${text}') ge 0 or indexof(contactPerson1, '${text}') ge 0 or indexof(contactPerson2, '${text}') ge 0",
  "columns": [
    {
      "name":"id",
      "hidden" : "true"
    },
    {
      "name":"id",
      "property": "linkID",
      "formatter": "ActionLinkFormatter",
      "actions" : [
        {
          "title": "Departments.ListTable.Preview.Department",
          "href": "#/departments/${id}/"
        },
        {
          "title": "Departments.ListTable.Preview.Edit",
          "href": "#/departments/${id}/edit"
        }
      ]
    },
    {
      "name": "abbreviation",
      "title": "Departments.ListTable.ID"
    },
    {
      "name": "name",
      "title": "Departments.ListTable.Name"
    },
    {
      "name":"facultyName",
      "title":"Departments.ListTable.facultyName"
    },
    {
      "name":"studyLevel/alternateName",
      "property" : "studyLevel",
      "title":"Departments.ListTable.StudyLevel",
      "formatter": "TranslationFormatter",
      "formatString": "StudyLevels.${value}"
    },
    {
      "name": "totalSemesters",
      "title": "Departments.ListTable.Semesters"
    },
    {
      "name":"contactPerson1",
      "hidden" : "true"
    },
    {
      "name":"contactPerson2",
      "hidden" : "true"
    },
    {
      "name":"phone1",
      "hidden" : "true"
    },
    {
      "name":"email",
      "hidden" : "true"
    },
    {
      "name" : "phone2",
      "title":"Departments.ListTable.ContactDetails",
      "formatter": "TemplateFormatter",
      "formatString": "${contactPerson1}, ${contactPerson2} <br /> ${phone1}, ${phone2} <br /> ${email}"
    }
  ],
  "defaults":{
    "filter": "studyLevel/alternateName eq 'undergraduate')"
  },
  "criteria": [
    {
      "name": "name",
      "filter": "(indexof(name, '${value}') ge 0)",
      "type": "text"
    },
    {
      "name": "facultyName",
      "filter": "(indexof(facultyName, '${value}') ge 0)",
      "type": "text"
    },
    {
      "name": "contact",
      "filter": "(indexof(phone2, '${value}') ge 0 or indexof(phone1, '${value}') ge 0 or indexof(email, '${value}') ge 0 or indexof(contactPerson1, '${value}') ge 0 or indexof(contactPerson2, '${value}') ge 0)",
      "type": "text"
    },
    {
      "name": "studyLevel",
      "filter": "(studyLevel/alternateName eq '${value}')",
      "type": "text"
    },
    {
      "name": "abbreviation",
      "filter": "(indexof(abbreviation, '${value}') ge 0  )",
      "type": "text"
    }
  ]
}
