{
  "model": "StudyPrograms",
  "settings": {
    "i18n": {
      "el": {
        "Name": "Ονομασία",
        "Set the name of this study program":"Ορίστε την ονομασία του προγράμματος σπουδών",
        "Set a short name": "Ορίστε μια συντομογραφία",
        "Set the degree description": "Ορίστε τον τίτλο πτυχίου που απονέμει",
        "Set study level of this study program": "Ορίστε το επίπεδο σπουδών του προγράμματος σπουδών",
        "Recommended semesters for completion of this study program": "Ο τυπικός αριθμός εξαμήνων για την ολοκλήρωση των σπουδών",
        "Study title type":"Περιγραφή τίτλου σπουδών",
        "Degree description": "Τίτλος πτυχίου",
        "Specialization title type":"Περιγραφή κατεύθυνσης",
        "Select the grade scale that will be applied in this study program. This will affect grade submission and student grades.": "Επιλέξτε την κλίμακα βαθμολογίας που θα εφαρμοστεί σε αυτό το πρόγραμμα σπουδών. Αυτό θα επηρεάσει τις υποβολές βαθμολογίας και τους βαθμούς των φοιτητών"
      }
    }
  },
  "components": [
    {
      "columns": [
        {
          "components": [
            {
              "label": "Name",
              "labelPosition": "top",
              "widget": {
                "type": "input"
              },
              "validate": {
                "required": true,
                "maxLength": 150
              },
              "key": "name",
              "type": "textfield",
              "input": true,
              "description": "Set the name of this study program"
            }
          ],
          "width": 6
        }
      ],
      "customClass": "text-dark",
      "hideLabel": true,
      "type": "columns",
      "input": false
    },
    {
      "columns": [
        {
          "components": [
            {
              "label": "Degree description",
              "labelPosition": "top",
              "validate": {
                "required": true,
                "maxLength": 150
              },
              "key": "degreeDescription",
              "type": "textfield",
              "input": true,
              "description": "Set the degree description"
            }
          ],
          "width": 6
        }
      ],
      "customClass": "text-dark",
      "type": "columns",
      "input": false
    },
    {
      "columns": [
        {
          "components": [
            {
              "label": "Abbreviation",
              "labelPosition": "top",
              "validate": {
                "required": true,
                "maxLength": 20
              },
              "key": "abbreviation",
              "type": "textfield",
              "input": true,
              "description": "Set a short name"
            }
          ],
          "width": 3
        }
      ],
      "customClass": "text-dark",
      "type": "columns",
      "input": false
    },
    {
      "columns": [
        {
          "components": [
            {
              "label": "Study Level",
              "labelPosition": "top",
              "widget": "choicesjs",
              "dataSrc": "url",
              "data": {
                "url": "StudyLevels/?$select=id,name,alternateName",
                "headers": []
              },
              "template": "<span class='d-block pr-5 text-truncate'>{{ item.name }}</span>",
              "searchFields": [
                "id",
                "name",
                "alternateName"
              ],
              "selectValues": "value",
              "validate": {
                "required": true
              },
              "key": "studyLevel.id",
              "valueProperty": "id",
              "lazyLoad": false,
              "type": "select",
              "input": true,
              "description": "Set study level of this study program"
            }
          ],
          "width": 4
        },
        {
          "components": [
            {
              "label": "Semesters",
              "labelPosition": "top",
              "widget": {
                "type": "input"
              },
              "validate": {
                "required": true,
                "integer": true,
                "min": 1,
                "max": 12
              },
              "key": "semesters",
              "type": "number",
              "input": true,
              "protected": true,
              "description": "Recommended semesters for completion of this study program"
            }
          ],
          "width": 4
        },
        {
          "components": [
            {
              "label": "Grade Scale",
              "labelPosition": "top",
              "widget": "choicesjs",
              "dataSrc": "url",
              "data": {
                "url": "GradeScales/?$select=id,name",
                "headers": []
              },
              "template": "<span class='d-block pr-5 text-truncate'>{{ item.name }}</span>",
              "searchFields": [
                "id",
                "name"
              ],
              "selectValues": "value",
              "validate": {
                "required": true
              },
              "key": "gradeScale",
              "lazyLoad": false,
              "type": "select",
              "input": true,
              "description": "Select the grade scale that will be applied in this study program. This will affect grade submission and student grades."
            }
          ],
          "width": 4
        },
        {
          "components": [
            {
              "label": "Study title type",
              "labelPosition": "top",
              "widget": "choicesjs",
              "dataSrc": "url",
              "data": {
                "url": "studyTitleTypes/?$select=id,name",
                "headers": []
              },
              "template": "<span class='d-block pr-5 text-truncate'>{{ item.name }}</span>",
              "searchFields": [
                "id",
                "name"
              ],
              "selectValues": "value",
              "validate": {
                "required": true
              },
              "key": "info.studyTitleType",
              "lazyLoad": false,
              "type": "select",
              "input": true
            }
          ],
          "width": 4
        },
        {
          "components": [
            {
              "label": "Specialization title type",
              "labelPosition": "top",
              "widget": "choicesjs",
              "dataSrc": "url",
              "data": {
                "url": "SpecializationTitleTypes/?$select=id,name",
                "headers": []
              },
              "template": "<span class='d-block pr-5 text-truncate'>{{ item.name }}</span>",
              "searchFields": [
                "id",
                "name"
              ],
              "selectValues": "value",
              "validate": {
                "required": true
              },
              "key": "info.specializationTitleType",
              "lazyLoad": false,
              "type": "select",
              "input": true
            }
          ],
          "width": 4
        }
      ],
      "customClass": "text-dark",
      "type": "columns",
      "input": false
    },
    {
      "type": "button",
      "label": "Submit",
      "key": "submit",
      "disableOnInvalid": true,
      "input": true
    }
  ]
}
