{
  "model": "CourseClassInstructors",
  "settings": {
    "i18n": {
      "el": {
        "Course Class Instructor Details": "Πληροφορίες διδάσκοντα τάξης",
        "Name": "Όνομα",
        "Surname": "Επώνυμο",
        "Department": "Τμήμα",
        "Category": "Κατηγορία",
        "Work phone": "Τηλέφωνο εργασίας",
        "Teaching hours": "Ώρες διδασκαλίας",
        "Edit the teaching hours of the course class instructor": "Επεξεργαστείτε τις ώρες διδασκαλίας του διδάσκοντα στην τάξη"
      }
    }
  },
  "components": [
    {
      "type": "fieldset",
      "legend": "Course Class Instructor Details",
      "components": [
        {
          "customClass": "text-dark",
          "hideLabel": true,
          "type": "columns",
          "input": true,
          "columns": [
            {
              "components": [
                {
                  "label": "Name",
                  "labelPosition": "top",
                  "widget": {
                    "type": "input"
                  },
                  "validate": {
                    "required": false
                  },
                  "key": "instructor.givenName",
                  "type": "textfield",
                  "input": true,
                  "disabled": true
                }
              ],
              "width": 4
            },
            {
              "components": [
                {
                  "label": "Surname",
                  "labelPosition": "top",
                  "widget": {
                    "type": "input"
                  },
                  "validate": {
                    "required": false
                  },
                  "key": "instructor.familyName",
                  "type": "textfield",
                  "input": true,
                  "disabled": true
                }
              ],
              "width": 4
            },
            {
              "components": [
                {
                  "label": "Department",
                  "labelPosition": "top",
                  "widget": {
                    "type": "input"
                  },
                  "validate": {
                    "required": false
                  },
                  "key": "instructor.department.name",
                  "type": "textfield",
                  "input": true,
                  "disabled": true
                }
              ],
              "width": 7
            },
            {
              "components": [
                {
                  "label": "Category",
                  "labelPosition": "top",
                  "widget": {
                    "type": "input"
                  },
                  "validate": {
                    "required": false
                  },
                  "key": "instructor.category",
                  "type": "textfield",
                  "input": true,
                  "disabled": true
                }
              ],
              "width": 4
            },
            {
              "components": [
                {
                  "label": "Email",
                  "labelPosition": "top",
                  "widget": {
                    "type": "input"
                  },
                  "validate": {
                    "required": false
                  },
                  "key": "instructor.email",
                  "type": "textfield",
                  "input": true,
                  "disabled": true
                }
              ],
              "width": 4
            },
            {
              "components": [
                {
                  "label": "Teaching hours",
                  "labelPosition": "top",
                  "widget": {
                    "type": "input"
                  },
                  "validate": {
                    "required": false
                  },
                  "key": "teachingHours",
                  "type": "textfield",
                  "input": true,
                  "description": "Edit the teaching hours of the course class instructor"
                }
              ],
              "width": 3
            },
            {
              "components": [
                {
                  "label": "Role",
                  "labelPosition": "top",
                  "widget": "choicesjs",
                  "dataSrc": "url",
                  "data": {
                    "url": "instructorRoles/?$select=id,name,alternateName",
                    "headers": []
                  },
                  "template": "{{ item.name }}",
                  "selectValues": "value",
                  "key": "role.id",
                  "valueProperty": "id",
                  "type": "select",
                  "input": true,
                  "searchEnabled": false,
                  "lazyLoad": true,
                  "validate": {
                    "required": true
                  }
                }
              ],
              "width": 3,
              "offset": 0,
              "push": 0,
              "pull": 0
            }
          ]
        }
      ]
    },
    {
      "type": "button",
      "label": "Submit",
      "key": "submit",
      "disableOnInvalid": true,
      "input": true
    }
  ]
}
