{
  "model": "UpdateSpecialtyAction",
  "settings": {
    "i18n": {
      "el": {
        "Change specialty": "Αλλαγή κατεύθυνσης φοιτητών",
        "Select new specialty for students": "Επιλέξτε τη νέα κατεύθυνση που θα ακολουθούν στους φοιτητές"
      }
    }
  },
  "components": [
    {
      "type": "fieldset",
      "key": "fieldSet",
      "input": false,
      "components": [
        {
          "columns": [
            {
              "components": [
                {
                  "label": "Change specialty",
                  "labelPosition": "top",
                  "widget": "choicesjs",
                  "dataSrc": "url",
                  "customConditional": "show = !!(data.currentProgram);",
                  "data": {
                    "url": "/StudyProgramSpecialties?$select=id,name&$filter=studyProgram eq {{data.currentProgram}} and specialty ne -1&$orderby=name",
                    "headers": []
                  },
                  "validate": {
                    "required": true
                  },
                  "valueProperty": "id",
                  "lazyLoad": false,
                  "dataType": "string",
                  "template": "<span class='d-block pr-5 text-truncate'>{{ item.name }}</span>",
                  "selectThreshold": 0.3,
                  "key": "specialty",
                  "type": "select",
                  "selectValues": "value",
                  "input": true,
                  "description": "Select new specialty for students"
                }
              ],
              "width": 8
            }
          ],
          "customClass": "text-dark",
          "hideLabel": true,
          "type": "columns",
          "input": false
        }
      ]
    }
  ]
}
